628,591 -> 628,792
954,874 -> 954,330
21,673 -> 21,718
525,32 -> 325,32
764,627 -> 585,627
95,947 -> 238,947
844,390 -> 278,390
30,836 -> 99,836
983,791 -> 983,640
731,286 -> 652,286
587,624 -> 587,798
109,171 -> 109,937
745,460 -> 76,460
826,459 -> 915,459
889,39 -> 894,39
883,211 -> 883,654
53,473 -> 53,212
673,170 -> 673,864
472,36 -> 472,77
308,296 -> 308,383
849,705 -> 737,705
339,818 -> 137,818
648,94 -> 555,94
577,359 -> 103,359
743,842 -> 743,871
307,271 -> 580,271
237,946 -> 822,946
352,521 -> 352,196
67,501 -> 611,501
561,916 -> 561,227
520,738 -> 67,738
755,350 -> 646,350
856,460 -> 604,460
249,987 -> 249,142
594,780 -> 594,90
223,60 -> 253,60
801,468 -> 433,468
486,122 -> 997,122
97,683 -> 97,454
64,602 -> 263,602
211,379 -> 219,379
759,770 -> 368,770
659,980 -> 330,980
692,114 -> 692,358
561,853 -> 306,853
704,525 -> 384,525
593,870 -> 593,718
375,554 -> 656,554
396,749 -> 54,749
521,27 -> 521,194
871,523 -> 788,523
281,498 -> 281,891
882,930 -> 765,930
788,410 -> 497,410
787,469 -> 143,469
678,499 -> 678,188
327,226 -> 333,226
833,913 -> 833,502
683,398 -> 683,10
684,805 -> 92,805
257,805 -> 131,805
635,300 -> 796,300
904,552 -> 289,552
914,149 -> 914,412
143,362 -> 143,898
869,238 -> 869,362
72,632 -> 72,72
858,526 -> 402,526
96,710 -> 385,710
463,740 -> 187,740
386,498 -> 386,517
967,937 -> 967,970
65,415 -> 65,678
669,88 -> 358,88
741,894 -> 521,894
822,911 -> 623,911
683,915 -> 831,915
945,612 -> 945,217
512,905 -> 485,905
663,249 -> 663,778
524,649 -> 524,374
482,336 -> 482,37
414,673 -> 414,217
94,682 -> 94,500
440,958 -> 274,958
563,309 -> 563,595
710,635 -> 710,708
983,962 -> 983,933
361,176 -> 361,116
24,903 -> 805,903
442,124 -> 278,124
486,935 -> 530,935
388,265 -> 388,216
130,556 -> 130,583
239,291 -> 239,760
302,711 -> 976,711
717,205 -> 717,170
87,286 -> 87,153
847,284 -> 847,458
917,983 -> 917,587
575,379 -> 575,20
275,11 -> 275,885
271,471 -> 271,175
309,775 -> 309,457
128,795 -> 128,891
346,554 -> 346,837
452,362 -> 513,362
955,358 -> 955,134
26,348 -> 986,348
267,454 -> 851,454
485,577 -> 485,193
308,721 -> 308,781
399,444 -> 399,430
922,945 -> 27,945
233,703 -> 233,110
980,616 -> 980,955
712,139 -> 712,501
658,827 -> 658,530
997,363 -> 997,632
597,886 -> 597,92
220,409 -> 220,497
51,230 -> 804,230
603,993 -> 603,327
217,123 -> 165,123
644,552 -> 644,887
181,69 -> 492,69
821,302 -> 958,302
313,547 -> 313,804
641,425 -> 641,164
478,902 -> 522,902
521,382 -> 172,382
556,416 -> 839,416
862,197 -> 862,714
562,47 -> 712,47
459,320 -> 459,502
865,679 -> 865,492
489,175 -> 489,68
877,817 -> 877,785
682,724 -> 927,724
774,216 -> 47,216
101,59 -> 230,59
420,738 -> 245,738
720,199 -> 720,760
792,162 -> 604,162
31,583 -> 815,583
321,767 -> 321,298
670,143 -> 923,143
351,416 -> 644,416
549,739 -> 668,739
891,445 -> 891,476
485,436 -> 424,436
960,936 -> 960,948
607,755 -> 89,755
231,411 -> 231,159
507,407 -> 507,267
621,605 -> 271,605
773,199 -> 773,815
82,974 -> 82,914
178,513 -> 332,513
150,602 -> 150,101
508,10 -> 753,10
770,186 -> 770,548
392,488 -> 392,927
500,30 -> 946,30
473,472 -> 473,345
955,154 -> 955,930
84,186 -> 808,186
240,340 -> 240,51
102,183 -> 102,802
673,736 -> 673,914
108,219 -> 450,219
313,924 -> 313,664
20,83 -> 566,83
513,703 -> 677,703
828,618 -> 828,754
568,713 -> 568,408
850,565 -> 142,565
115,988 -> 867,988
484,329 -> 854,329
60,571 -> 60,27
141,694 -> 605,694
125,759 -> 125,331
359,935 -> 114,935
490,686 -> 948,686
627,87 -> 568,87
430,738 -> 430,122
201,615 -> 201,544
895,694 -> 895,219
365,442 -> 365,637
450,162 -> 450,67
526,71 -> 526,194
669,209 -> 669,508
230,179 -> 230,35
402,852 -> 402,526
427,17 -> 427,244
693,50 -> 282,50
903,363 -> 903,523
379,598 -> 335,598
780,476 -> 561,476
519,535 -> 519,482
72,101 -> 72,930
394,601 -> 868,601
845,951 -> 988,951
15,913 -> 772,913
129,323 -> 800,323
62,468 -> 62,250
796,692 -> 796,779
772,131 -> 772,697
422,706 -> 64,706
799,904 -> 858,904
361,206 -> 361,878
791,36 -> 791,349
921,248 -> 517,248
498,565 -> 498,598
569,907 -> 569,807
440,244 -> 440,132
809,675 -> 419,675
390,435 -> 390,201
180,115 -> 180,576
111,91 -> 158,91
614,520 -> 614,204
689,122 -> 456,122
664,568 -> 56,568
414,172 -> 414,164
658,134 -> 25,134
814,800 -> 814,363
222,231 -> 209,231
935,859 -> 935,475
496,829 -> 594,829
694,723 -> 913,723
559,888 -> 559,233
231,253 -> 231,460
586,927 -> 305,927
235,277 -> 634,277
162,779 -> 102,779
342,991 -> 375,991
365,37 -> 141,37
654,160 -> 654,547
402,642 -> 402,761
344,337 -> 473,337
50,56 -> 50,276
910,528 -> 568,528
310,733 -> 688,733
766,829 -> 275,829
389,880 -> 761,880
906,795 -> 906,228
154,608 -> 465,608
243,137 -> 228,137
963,463 -> 943,463
120,566 -> 515,566
942,805 -> 522,805
431,486 -> 650,486
365,814 -> 578,814
72,606 -> 72,343
661,355 -> 661,284
535,482 -> 535,502
56,248 -> 250,248
155,244 -> 155,343
196,623 -> 54,623
953,917 -> 953,208
154,329 -> 682,329
233,11 -> 879,11
484,544 -> 290,544
313,254 -> 313,777
775,588 -> 775,991
510,338 -> 433,338
49,927 -> 258,927
20,696 -> 20,380
233,241 -> 795,241
723,797 -> 723,52
65,188 -> 455,188
141,754 -> 141,756
23,117 -> 23,49
914,790 -> 914,309
474,49 -> 892,49
332,907 -> 587,907
731,52 -> 122,52
275,937 -> 831,937
351,480 -> 351,653
843,585 -> 822,585
563,105 -> 365,105
352,288 -> 981,288
403,769 -> 962,769
852,384 -> 852,204
140,467 -> 804,467
292,693 -> 713,693
818,364 -> 410,364
466,821 -> 466,611
625,893 -> 625,263
628,900 -> 31,900
968,955 -> 968,351
171,416 -> 560,416
184,660 -> 984,660
861,686 -> 861,198
630,286 -> 630,310
896,537 -> 896,888
851,744 -> 504,744
824,202 -> 824,852
285,711 -> 912,711
203,618 -> 23,618
59,159 -> 27,159
517,185 -> 550,185
490,274 -> 646,274
457,465 -> 457,384
840,628 -> 840,102
30,53 -> 526,53
140,398 -> 140,73
527,934 -> 527,15
380,309 -> 380,917
12,930 -> 644,930
773,717 -> 823,717
203,27 -> 117,27
159,538 -> 159,632
635,978 -> 635,613
844,40 -> 115,40
683,172 -> 683,77
804,112 -> 804,496
466,90 -> 466,755
840,351 -> 998,351
90,87 -> 90,178
771,659 -> 659,659
192,345 -> 299,345
745,947 -> 17,947
897,256 -> 897,385
477,131 -> 129,131
944,998 -> 343,998
663,880 -> 712,880
708,35 -> 708,260
640,33 -> 640,124
212,784 -> 221,784
357,996 -> 418,996
103,846 -> 103,868
243,390 -> 243,812
903,209 -> 212,209
336,109 -> 517,109
330,418 -> 260,418
